outputColumn,Xpath,Comparison,Translate,Comments
EmployeeID,//Worker[1]/Summary/emp_id,EQUALS,,
Name,//Worker[1]/Summary/name,EQUALS,,
Phone,//Worker[1]/Summary/mobile_no,EQUALS,,
Birthday,//Worker[1]/Summary/dob,Translate,RtnVal=<small code to translate date format>,