C:\Users\amits\IdeaProjects\skylight\personal-skylight\skylight\src\test\java\au\com\conexxia\skylight\AppTest.java
C:\Users\amits\IdeaProjects\skylight\personal-skylight\skylight\src\test\java\au\com\conexxia\skylight\StepDefinitions.java
C:\Users\amits\IdeaProjects\skylight\personal-skylight\skylight\src\test\java\au\com\conexxia\skylight\CukeRunner.java
C:\Users\amits\IdeaProjects\skylight\personal-skylight\skylight\src\test\java\au\com\conexxia\skylight\Container.java
